Part 3: Practical Day Four – Submission
…
Question 1

Displaying the flights dataset in an alternative format. Used the tibble and skimr to do this.

Code

tibble(flights)

# A tibble: 336,776 × 19
    year month   day dep_time sched_dep_time dep_delay arr_time sched_arr_time
   <int> <int> <int>    <int>          <int>     <dbl>    <int>          <int>
 1  2013     1     1      517            515         2      830            819
 2  2013     1     1      533            529         4      850            830
 3  2013     1     1      542            540         2      923            850
 4  2013     1     1      544            545        -1     1004           1022
 5  2013     1     1      554            600        -6      812            837
 6  2013     1     1      554            558        -4      740            728
 7  2013     1     1      555            600        -5      913            854
 8  2013     1     1      557            600        -3      709            723
 9  2013     1     1      557            600        -3      838            846
10  2013     1     1      558            600        -2      753            745
# ℹ 336,766 more rows
# ℹ 11 more variables: arr_delay <dbl>, carrier <chr>, flight <int>,
#   tailnum <chr>, origin <chr>, dest <chr>, air_time <dbl>, distance <dbl>,
#   hour <dbl>, minute <dbl>, time_hour <dttm>
…
library(dplyr)

#1. Identify the routes that more than one airline flies 
multiple_airline_routes <- flights |> group_by(origin, dest)|>
  summarise(num_airlines = n_distinct(carrier))|>
  filter(num_airlines>1)

`summarise()` has grouped output by 'origin'. You can override using the
`.groups` argument.

Code

multiple_airline_routes

# A tibble: 128 × 3
# Groups:   origin [3]
   origin dest  num_airlines
   <chr>  <chr>        <int>
 1 EWR    ATL              4
 2 EWR    AUS              2
 3 EWR    BDL              2
 4 EWR    BNA              2
 5 EWR    BOS              3
 6 EWR    BWI              2
 7 EWR    CHS              2
 8 EWR    CLE              2
 9 EWR    CLT              3
10 EWR    CVG              2
# ℹ 118 more rows
Code

#2. Calculate the average arrival delay for each airline, exlcuding NAs
flights |> group_by(origin, dest)|>
  filter(n_distinct(carrier)>1)|>
  group_by(origin, dest, carrier)|>
  summarise(avg_delay = mean(dep_delay, na.rm=TRUE, .groups = "drop"))|>
  left_join(airlines)|>
  relocate(name, .after = "carrier")

`summarise()` has grouped output by 'origin', 'dest'. You can override using
the `.groups` argument.
Joining with `by = join_by(carrier)`

# A tibble: 343 × 5
# Groups:   origin, dest [128]
   origin dest  carrier name                     avg_delay
   <chr>  <chr> <chr>   <chr>                        <dbl>
 1 EWR    ATL   9E      Endeavor Air Inc.            -5.75
 2 EWR    ATL   DL      Delta Air Lines Inc.         11.9 
 3 EWR    ATL   EV      ExpressJet Airlines Inc.     22.3 
 4 EWR    ATL   UA      United Air Lines Inc.        15.8 
 5 EWR    AUS   UA      United Air Lines Inc.        14.9 
 6 EWR    AUS   WN      Southwest Airlines Co.        3.84
 7 EWR    BDL   EV      ExpressJet Airlines Inc.     17.6 
 8 EWR    BDL   UA      United Air Lines Inc.        25.7 
 9 EWR    BNA   EV      ExpressJet Airlines Inc.     20.8 
10 EWR    BNA   WN      Southwest Airlines Co.        8.38
# ℹ 333 more rows
…
`summarise()` has grouped output by 'origin', 'dest'. You can override using
the `.groups` argument.
Joining with `by = join_by(carrier)`
`summarise()` has grouped output by 'origin'. You can override using the
`.groups` argument.

# A tibble: 128 × 6
# Groups:   origin [3]
   origin dest  best_airline        worst_airline worst_avg_delay best_avg_delay
   <chr>  <chr> <chr>               <chr>                   <dbl>          <dbl>
 1 EWR    ATL   Endeavor Air Inc.   ExpressJet A…           19.5          -6.25 
 2 EWR    AUS   Southwest Airlines… United Air L…            4.28        -11.2  
 3 EWR    BDL   ExpressJet Airline… United Air L…           22.6           6.78 
 4 EWR    BNA   Southwest Airlines… ExpressJet A…           17.7          -2.13 
 5 EWR    BOS   ExpressJet Airline… JetBlue Airw…            6.87         -4.01 
 6 EWR    BWI   Southwest Airlines… ExpressJet A…           20.1           5.95 
 7 EWR    CHS   United Air Lines I… ExpressJet A…           16.2         -14    
 8 EWR    CLE   ExpressJet Airline… United Air L…            5.97         -3.71 
 9 EWR    CLT   US Airways Inc.     ExpressJet A…           20.5           0.920
10 EWR    CVG   Endeavor Air Inc.   ExpressJet A…           21.2           1.40 
# ℹ 118 more rows
…
